{
  "collectionName": "components_information_adresses",
  "info": {
    "displayName": "address",
    "icon": "map",
    "description": ""
  },
  "options": {},
  "attributes": {
    "address": {
      "type": "string"
    },
    "country": {
      "type": "string"
    },
    "zipcode": {
      "type": "integer"
    },
    "city": {
      "type": "string"
    }
  }
}
