{
  "collectionName": "components_contactinformation_contacts",
  "info": {
    "displayName": "contact",
    "icon": "address-book",
    "description": ""
  },
  "options": {},
  "attributes": {
    "email": {
      "type": "email"
    },
    "phonenumber": {
      "type": "integer"
    },
    "title": {
      "type": "string"
    }
  }
}
