{
  "kind": "collectionType",
  "collectionName": "additionalsales",
  "info": {
    "singularName": "additionalsale",
    "pluralName": "additionalsales",
    "displayName": "additionalsale",
    "description": ""
  },
  "options": {
    "draftAndPublish": true
  },
  "pluginOptions": {},
  "attributes": {
    "products": {
      "type": "relation",
      "relation": "manyToMany",
      "target": "api::product.product",
      "inversedBy": "additionalsales"
    },
    "title": {
      "type": "string"
    },
    "text": {
      "type": "string"
    }
  }
}
