{
  "collectionName": "components_so_me_so_mes",
  "info": {
    "displayName": "SoMe",
    "icon": "users",
    "description": ""
  },
  "options": {},
  "attributes": {
    "link": {
      "type": "richtext"
    },
    "logo": {
      "type": "media",
      "multiple": false,
      "required": false,
      "allowedTypes": [
        "images",
        "files",
        "videos",
        "audios"
      ]
    },
    "socialmedia": {
      "type": "string"
    },
    "title": {
      "type": "string"
    }
  }
}
