{
  "kind": "collectionType",
  "collectionName": "products",
  "info": {
    "singularName": "product",
    "pluralName": "products",
    "displayName": "product",
    "description": ""
  },
  "options": {
    "draftAndPublish": true
  },
  "pluginOptions": {},
  "attributes": {
    "gallery": {
      "type": "media",
      "multiple": true,
      "required": false,
      "allowedTypes": [
        "images",
        "files",
        "videos",
        "audios"
      ]
    },
    "size": {
      "type": "component",
      "repeatable": true,
      "component": "store.size"
    },
    "categories": {
      "type": "relation",
      "relation": "manyToMany",
      "target": "api::category.category",
      "mappedBy": "products"
    },
    "descriptionLong": {
      "type": "text"
    },
    "descriptionShort": {
      "type": "string"
    },
    "title": {
      "type": "string"
    },
    "price": {
      "type": "integer"
    },
    "thumbnail": {
      "type": "media",
      "multiple": false,
      "required": false,
      "allowedTypes": [
        "images",
        "files",
        "videos",
        "audios"
      ]
    },
    "additionalsales": {
      "type": "relation",
      "relation": "manyToMany",
      "target": "api::additionalsale.additionalsale",
      "mappedBy": "products"
    },
    "imgLink": {
      "type": "richtext"
    }
  }
}
