{
  "collectionName": "components_global_dynamiczones",
  "info": {
    "displayName": "title&text",
    "icon": "grip-horizontal",
    "description": ""
  },
  "options": {},
  "attributes": {
    "title": {
      "type": "string"
    },
    "text": {
      "type": "text"
    }
  }
}
