{
  "collectionName": "components_global_links",
  "info": {
    "displayName": "link",
    "icon": "link"
  },
  "options": {},
  "attributes": {
    "title": {
      "type": "string"
    },
    "link": {
      "type": "richtext"
    },
    "text": {
      "type": "string"
    }
  }
}
